{"uri": "eng-9555067", "concepts": [{"uri": "http://en.wikipedia.org/wiki/NBC", "type": "org", "score": 100, "label": {"eng": "NBC"}}, {"uri": "http://en.wikipedia.org/wiki/The_Hunting_Party_(Lost)", "type": "wiki", "score": 95, "label": {"eng": "The Hunting Party (Lost)"}}, {"uri": "http://en.wikipedia.org/wiki/Roxburgh", "type": "loc", "score": 71, "label": {"eng": "Roxburgh"}, "location": {"type": "place", "label": {"eng": "Roxburgh"}, "country": {"type": "country", "label": {"eng": "United Kingdom"}}}}, {"uri": "http://en.wikipedia.org/wiki/Manifest_(TV_series)", "type": "wiki", "score": 65, "label": {"eng": "Manifest (TV series)"}}, {"uri": "http://en.wikipedia.org/wiki/Police_procedural", "type": "wiki", "score": 65, "label": {"eng": "Police procedural"}}, {"uri": "http://en.wikipedia.org/wiki/Serial_killer", "type": "wiki", "score": 65, "label": {"eng": "Serial killer"}}, {"uri": "http://en.wikipedia.org/wiki/Drama_(film_and_television)", "type": "wiki", "score": 44, "label": {"eng": "Drama (film and television)"}}, {"uri": "http://en.wikipedia.org/wiki/Television_pilot", "type": "wiki", "score": 44, "label": {"eng": "Television pilot"}}, {"uri": "http://en.wikipedia.org/wiki/CBS", "type": "org", "score": 29, "label": {"eng": "CBS"}}, {"uri": "http://en.wikipedia.org/wiki/Universal_Television", "type": "org", "score": 22, "label": {"eng": "Universal Television"}}, {"uri": "http://en.wikipedia.org/wiki/Netflix", "type": "wiki", "score": 21, "label": {"eng": "Netflix"}}], "eventDate": "2024-05-09", "totalArticleCount": 5, "title": {"eng": "'Manifest' Alum Melissa Roxburgh to Lead NBC Drama Series 'Hunting Party'"}, "summary": {"eng": "Melissa Roxburgh has been cast in a lead role of the upcoming NBC drama series \"The Hunting Party,\" Variety has learned.\n\nThe series was originally announced at NBC back in February. It is described as a crime procedural about \"a small team of investigators who are assembled to track down and capture the most dangerous killers our country has ever seen, all of whom have just escaped from a top-secret prison that's not supposed to exist.\"\n\nRoxburgh will star as Rebecca \"Bex\" Henderson. The charact"}, "location": {"type": "place", "label": {"eng": "Roxburgh"}, "country": {"type": "country", "label": {"eng": "United Kingdom"}}}, "categories": [{"uri": "dmoz/Arts/Television/Programs", "label": "dmoz/Arts/Television/Programs", "wgt": 100}, {"uri": "dmoz/Recreation/Parties", "label": "dmoz/Recreation/Parties", "wgt": 100}, {"uri": "dmoz/Arts/Animation/Cartoons", "label": "dmoz/Arts/Animation/Cartoons", "wgt": 100}, {"uri": "news/Arts_and_Entertainment", "label": "news/Arts and Entertainment", "wgt": 90}], "articleCounts": {"eng": 5}, "sentiment": -0.02745098039215688}
{"uri": "8119557383", "lang": "eng", "isDuplicate": false, "date": "2024-05-09", "time": "17:31:32", "dateTime": "2024-05-09T17:31:32Z", "dateTimePub": "2024-05-09T17:31:13Z", "dataType": "news", "sim": 0.8705882430076599, "url": "https://deadline.com/2024/05/melissa-roxburgh-the-hunting-party-nbc-1235909619/", "title": "Melissa Roxburgh To Star In NBC Series 'The Hunting Party'", "body": "Created by JJ Bailey who wrote the pilot episode, The Hunting Party is a high-concept crime procedural about a small team of investigators who are assembled to track down and capture the most dangerous killers our country has ever seen, all of whom have just escaped from a top-secret prison that's not supposed to exist.\n\nRoxburgh will play Rebecca \"Bex\" Henderson. Shrewd, steadfast and obsessively curious, Bex is an ex-FBI agent recruited to an elite government task force due to her reputation as a savvy profiler who's caught some of the world's most dangerous serial killers.\n\nThe Hunting Party, which received a straight-to-series order, is executive produced by Bailey and Jake Coburn who are writing and co-showrunning together. Universal Television, a division of Universal Studio Group, is the studio.\n\nRoxburgh is best known for playing the lead of the popular drama series Manifest, which ran on NBC for three seasons before being canceled and rescued by Netflix with an order for a two-part fourth and final season. She is guest starring on CBS' hit new drama series Tracker as Colter's (Justin Hartley) sister. Roxburgh, who co-starred in the 2022 feature Mindcage opposite John Malkovich and Martin Lawrence, is repped by Gersh, Atlas Artists and Nuance Talent Management.", "source": {"uri": "deadline.com", "dataType": "news", "title": "Deadline"}, "authors": [{"uri": "nellie_andreeva@deadline.com", "name": "Nellie Andreeva", "type": "author", "isAgency": false}], "concepts": [{"uri": "http://en.wikipedia.org/wiki/The_Hunting_Party_(Lost)", "type": "wiki", "score": 4, "label": {"eng": "The Hunting Party (Lost)"}}, {"uri": "http://en.wikipedia.org/wiki/Police_procedural", "type": "wiki", "score": 3, "label": {"eng": "Police procedural"}}, {"uri": "http://en.wikipedia.org/wiki/Television_pilot", "type": "wiki", "score": 3, "label": {"eng": "Television pilot"}}, {"uri": "http://en.wikipedia.org/wiki/Serial_killer", "type": "wiki", "score": 2, "label": {"eng": "Serial killer"}}, {"uri": "http://en.wikipedia.org/wiki/NBCUniversal_Television_and_Streaming", "type": "wiki", "score": 1, "label": {"eng": "NBCUniversal Television and Streaming"}}, {"uri": "http://en.wikipedia.org/wiki/Manifest_(TV_series)", "type": "wiki", "score": 1, "label": {"eng": "Manifest (TV series)"}}, {"uri": "http://en.wikipedia.org/wiki/Tracker_(TV_series)", "type": "wiki", "score": 1, "label": {"eng": "Tracker (TV series)"}}, {"uri": "http://en.wikipedia.org/wiki/Drama_(film_and_television)", "type": "wiki", "score": 1, "label": {"eng": "Drama (film and television)"}}, {"uri": "http://en.wikipedia.org/wiki/Martin_Lawrence", "type": "person", "score": 1, "label": {"eng": "Martin Lawrence"}}, {"uri": "http://en.wikipedia.org/wiki/Universal_Television", "type": "org", "score": 1, "label": {"eng": "Universal Television"}}, {"uri": "http://en.wikipedia.org/wiki/John_Malkovich", "type": "person", "score": 1, "label": {"eng": "John Malkovich"}}, {"uri": "http://en.wikipedia.org/wiki/Justin_Hartley", "type": "person", "score": 1, "label": {"eng": "Justin Hartley"}}, {"uri": "http://en.wikipedia.org/wiki/CBS", "type": "org", "score": 1, "label": {"eng": "CBS"}}, {"uri": "http://en.wikipedia.org/wiki/NBC", "type": "org", "score": 1, "label": {"eng": "NBC"}}, {"uri": "http://en.wikipedia.org/wiki/Netflix", "type": "wiki", "score": 1, "label": {"eng": "Netflix"}}], "categories": [{"uri": "dmoz/Arts/Television/Programs", "label": "dmoz/Arts/Television/Programs", "wgt": 100}, {"uri": "dmoz/Recreation/Parties", "label": "dmoz/Recreation/Parties", "wgt": 100}, {"uri": "dmoz/Arts/Animation/Cartoons", "label": "dmoz/Arts/Animation/Cartoons", "wgt": 100}, {"uri": "dmoz/Home/Entertaining/Holidays", "label": "dmoz/Home/Entertaining/Holidays", "wgt": 100}, {"uri": "news/Arts_and_Entertainment", "label": "news/Arts and Entertainment", "wgt": 98}], "image": "https://deadline.com/wp-content/uploads/2024/05/Melissa-Roxburgh-NBC.jpg?w=1024", "originalArticle": null, "storyUri": "eng-9555067", "eventUri": "eng-9555067", "location": null, "extractedDates": null, "sentiment": 0.05882352941176472, "wgt": 222, "relevance": 1}
{"uri": "8119560587", "lang": "eng", "isDuplicate": false, "date": "2024-05-09", "time": "17:34:21", "dateTime": "2024-05-09T17:34:21Z", "dateTimePub": "2024-05-09T17:33:30Z", "dataType": "news", "sim": 0.8509804010391235, "url": "https://variety.com/2024/tv/news/manifest-melissa-roxburgh-nbc-drama-series-hunting-party-1235997229/", "title": "'Manifest' Alum Melissa Roxburgh to Lead NBC Drama Series 'Hunting Party'", "body": "Melissa Roxburgh has been cast in a lead role of the upcoming NBC drama series \"The Hunting Party,\" Variety has learned.\n\nThe series was originally announced at NBC back in February. It is described as a crime procedural about \"a small team of investigators who are assembled to track down and capture the most dangerous killers our country has ever seen, all of whom have just escaped from a top-secret prison that's not supposed to exist.\"\n\nRoxburgh will star as Rebecca \"Bex\" Henderson. The character is described as \"Shrewd, steadfast and obsessively curious, Bex is an ex-FBI agent recruited to an elite government task force due to her reputation as a savvy profiler who's caught some of the world's most dangerous serial killers.\"\n\nThe role marks a starring role return to NBC for Roxburgh, as she is best known for her starring role in the supernatural drama series \"Manifest.\" The show aired its first three seasons on NBC before moving to Netflix for a fourth and final season. She also recently appeared in an episode of NBC's followup to \"Quantum Leap\" and previously starred in the CW series \"Valor.\" In film, she has starred in features like \"Mindcage,\" \"I Still Believe,\" and \"Star Trek Beyond.\"\n\nJJ Bailey is the creator of \"The Hunting Party\" and wrote the pilot. He also serves as executive producer and co-showrunner, with Jake Coburn also credited as a writer on the series as well as executive producer and co-showrunner. Universal Television will produce, with Bailey under an overall deal at UTV while Coburn is under a first-look deal.\n\nRoxburgh is repped by Gersh, Atlas Artists and Nuance Talent Management. Bailey is also repped by Gersh.", "source": {"uri": "variety.com", "dataType": "news", "title": "Variety"}, "authors": [], "concepts": [{"uri": "http://en.wikipedia.org/wiki/NBC", "type": "org", "score": 5, "label": {"eng": "NBC"}}, {"uri": "http://en.wikipedia.org/wiki/Drama_(film_and_television)", "type": "wiki", "score": 4, "label": {"eng": "Drama (film and television)"}}, {"uri": "http://en.wikipedia.org/wiki/The_Hunting_Party_(Lost)", "type": "wiki", "score": 3, "label": {"eng": "The Hunting Party (Lost)"}}, {"uri": "http://en.wikipedia.org/wiki/Melissa_Roxburgh", "type": "person", "score": 3, "label": {"eng": "Melissa Roxburgh"}}, {"uri": "http://en.wikipedia.org/wiki/Police_procedural", "type": "wiki", "score": 3, "label": {"eng": "Police procedural"}}, {"uri": "http://en.wikipedia.org/wiki/Variety_(magazine)", "type": "wiki", "score": 3, "label": {"eng": "Variety (magazine)"}}, {"uri": "http://en.wikipedia.org/wiki/Roxburgh", "type": "loc", "score": 3, "label": {"eng": "Roxburgh"}, "location": {"type": "place", "label": {"eng": "Roxburgh"}, "country": {"type": "country", "label": {"eng": "United Kingdom"}}}}, {"uri": "http://en.wikipedia.org/wiki/Manifest_(TV_series)", "type": "wiki", "score": 2, "label": {"eng": "Manifest (TV series)"}}, {"uri": "http://en.wikipedia.org/wiki/Serial_killer", "type": "wiki", "score": 2, "label": {"eng": "Serial killer"}}, {"uri": "http://en.wikipedia.org/wiki/Supernatural", "type": "wiki", "score": 2, "label": {"eng": "Supernatural"}}, {"uri": "http://en.wikipedia.org/wiki/First-look_deal", "type": "wiki", "score": 1, "label": {"eng": "First-look deal"}}, {"uri": "http://en.wikipedia.org/wiki/I_Still_Believe_(film)", "type": "wiki", "score": 1, "label": {"eng": "I Still Believe (film)"}}, {"uri": "http://en.wikipedia.org/wiki/The_CW", "type": "wiki", "score": 1, "label": {"eng": "The CW"}}, {"uri": "http://en.wikipedia.org/wiki/UTV_(TV_channel)", "type": "wiki", "score": 1, "label": {"eng": "UTV (TV channel)"}}, {"uri": "http://en.wikipedia.org/wiki/Universal_Television", "type": "org", "score": 1, "label": {"eng": "Universal Television"}}, {"uri": "http://en.wikipedia.org/wiki/Quantum_Leap", "type": "wiki", "score": 1, "label": {"eng": "Quantum Leap"}}, {"uri": "http://en.wikipedia.org/wiki/Television_pilot", "type": "wiki", "score": 1, "label": {"eng": "Television pilot"}}, {"uri": "http://en.wikipedia.org/wiki/Star_Trek", "type": "wiki", "score": 1, "label": {"eng": "Star Trek"}}, {"uri": "http://en.wikipedia.org/wiki/Executive_producer", "type": "wiki", "score": 1, "label": {"eng": "Executive producer"}}, {"uri": "http://en.wikipedia.org/wiki/Netflix", "type": "wiki", "score": 1, "label": {"eng": "Netflix"}}], "categories": [{"uri": "dmoz/Arts/Television/Programs", "label": "dmoz/Arts/Television/Programs", "wgt": 100}, {"uri": "dmoz/Science/Astronomy/Stars", "label": "dmoz/Science/Astronomy/Stars", "wgt": 100}, {"uri": "dmoz/Arts/Animation/Cartoons", "label": "dmoz/Arts/Animation/Cartoons", "wgt": 100}, {"uri": "news/Arts_and_Entertainment", "label": "news/Arts and Entertainment", "wgt": 100}], "image": "https://variety.com/wp-content/uploads/2024/05/Melissa-Roxburgh-e1715264761842.jpg?w=1000&h=563&crop=1", "originalArticle": null, "storyUri": "eng-9555067", "eventUri": "eng-9555067", "location": null, "extractedDates": null, "sentiment": 0.05882352941176472, "wgt": 217, "relevance": 1}
{"uri": "2024-05-350701979", "lang": "eng", "isDuplicate": false, "date": "2024-05-09", "time": "21:19:33", "dateTime": "2024-05-09T21:19:33Z", "dateTimePub": "2024-05-09T21:15:33Z", "dataType": "news", "sim": 0.8470588326454163, "url": "https://www.comingsoon.net/tv/news/1710597-the-hunting-party-melissa-roxburgh-nbc-manifest", "title": "The Hunting Party Cast: Manifest's Melissa Roxburgh to Lead NBC Crime Drama", "body": "Roxburgh will be playing the role of ex-FBI agent Rebecca \"Bex\" Henderson, who's being described as \"shrewd, steadfast and obsessively curious.\" Her full character description reads, \"she gets recruited to an elite government task force due to her reputation as a savvy profiler who's caught some of the world's most dangerous serial killers.\"\n\nThis marks Roxburgh's first major TV project as the lead after Manifest ended its four-season run last year. She recently had brief appearances in NBC's Quantum Leap and CBS' Tracker.\n\nWhat to expect from The Hunting Party?\n\n\"The series follows a small team of investigators who are assembled to track down and capture the most dangerous killers our country has ever seen, all of whom have just escaped from a top-secret prison that's not supposed to exist,\" reads the logline.\n\nThe Hunting Party is created and written by JJ Bailey, who is also set as the showrunner along with Jake Coburn. Bailey and Coburn are also executive producing the project. It is a production by Universal Television.", "source": {"uri": "comingsoon.net", "dataType": "news", "title": "ComingSoon.net"}, "authors": [{"uri": "maggie_dela_paz@comingsoon.net", "name": "Maggie Dela Paz", "type": "author", "isAgency": false}], "concepts": [{"uri": "http://en.wikipedia.org/wiki/Manifest_(TV_series)", "type": "wiki", "score": 4, "label": {"eng": "Manifest (TV series)"}}, {"uri": "http://en.wikipedia.org/wiki/The_Hunting_Party_(Lost)", "type": "wiki", "score": 4, "label": {"eng": "The Hunting Party (Lost)"}}, {"uri": "http://en.wikipedia.org/wiki/NBC", "type": "org", "score": 4, "label": {"eng": "NBC"}}, {"uri": "http://en.wikipedia.org/wiki/Roxburgh", "type": "loc", "score": 4, "label": {"eng": "Roxburgh"}, "location": {"type": "place", "label": {"eng": "Roxburgh"}, "country": {"type": "country", "label": {"eng": "United Kingdom"}}}}, {"uri": "http://en.wikipedia.org/wiki/Melissa_Roxburgh", "type": "person", "score": 3, "label": {"eng": "Melissa Roxburgh"}}, {"uri": "http://en.wikipedia.org/wiki/Crime_film", "type": "wiki", "score": 3, "label": {"eng": "Crime film"}}, {"uri": "http://en.wikipedia.org/wiki/Quantum_Leap", "type": "wiki", "score": 2, "label": {"eng": "Quantum Leap"}}, {"uri": "http://en.wikipedia.org/wiki/Serial_killer", "type": "wiki", "score": 2, "label": {"eng": "Serial killer"}}, {"uri": "http://en.wikipedia.org/wiki/CBS", "type": "org", "score": 2, "label": {"eng": "CBS"}}, {"uri": "http://en.wikipedia.org/wiki/Universal_Television", "type": "org", "score": 1, "label": {"eng": "Universal Television"}}, {"uri": "http://en.wikipedia.org/wiki/Showrunner", "type": "wiki", "score": 1, "label": {"eng": "Showrunner"}}], "categories": [{"uri": "dmoz/Shopping/Entertainment/Party_Supplies", "label": "dmoz/Shopping/Entertainment/Party Supplies", "wgt": 13}, {"uri": "dmoz/Recreation/Outdoors/Hunting", "label": "dmoz/Recreation/Outdoors/Hunting", "wgt": 17}, {"uri": "dmoz/Society/Crime/Murder", "label": "dmoz/Society/Crime/Murder", "wgt": 15}, {"uri": "dmoz/Shopping/Children/Parties", "label": "dmoz/Shopping/Children/Parties", "wgt": 13}, {"uri": "dmoz/Home/Entertaining/Party_Planning", "label": "dmoz/Home/Entertaining/Party Planning", "wgt": 13}, {"uri": "news/Arts_and_Entertainment", "label": "news/Arts and Entertainment", "wgt": 96}], "image": "https://www.comingsoon.net/wp-content/uploads/sites/3/2024/05/melissa-roxburgh-e1715287045702.jpg?resize=1200,630", "originalArticle": null, "storyUri": "eng-9555067", "eventUri": "eng-9555067", "location": null, "extractedDates": null, "sentiment": -0.01960784313725494, "wgt": 216, "relevance": 1}
{"uri": "8119597816", "lang": "eng", "isDuplicate": false, "date": "2024-05-09", "time": "18:05:56", "dateTime": "2024-05-09T18:05:56Z", "dateTimePub": "2024-05-09T18:05:30Z", "dataType": "news", "sim": 0.7882353067398071, "url": "https://tvline.com/casting-news/melissa-roxburgh-the-hunting-party-nbc-series-cast-1235236699/", "title": "Manifest's Melissa Roxburgh to Star in NBC Crime Drama The Hunting Party", "body": "First ordered to series in February, the \"high-concept crime procedural\" follows an assembled team of investigators who are tasked with tracking down and capturing the country's most dangerous killers, all of whom have just escaped from a \"top-secret prison that's not supposed to exist,\" per the official logline.\n\nRoxburgh will play Rebecca \"Bex\" Henderson, a shrewd ex-FBI agent who is recruited to the titular group due to her reputation as a savvy profiler who's caught some of the world's most dangerous serial killers.\n\nThe Hunting Party hails from series creator JJ Bailey, who also wrote the pilot episode. Bailey will serve as co-showrunner alongside Jake Coburn (co-creator of NBC's The Endgame).\n\nRoxburgh, meanwhile, recently capped a four-season run on NBC-turned-Netflix's supernatural drama Manifest, where she starred as Michaela Stone opposite Once Upon a Time's Josh Dallas. Earlier this month, she was introduced on CBS' Tracker as Dr. Dory Shaw, the younger sister of Justin Hartley's Colter Shaw. Roxburgh boarded Tracker with the potential to recur, though it's unclear how her role will change in the wake of Thursday's Hunting Party news.", "source": {"uri": "tvline.com", "dataType": "news", "title": "TVLine"}, "authors": [{"uri": "rebecca_iannucci@tvline.com", "name": "Rebecca Iannucci", "type": "author", "isAgency": false}], "concepts": [{"uri": "http://en.wikipedia.org/wiki/High_concept", "type": "wiki", "score": 3, "label": {"eng": "High concept"}}, {"uri": "http://en.wikipedia.org/wiki/Police_procedural", "type": "wiki", "score": 3, "label": {"eng": "Police procedural"}}, {"uri": "http://en.wikipedia.org/wiki/Roxburgh", "type": "loc", "score": 3, "label": {"eng": "Roxburgh"}, "location": {"type": "place", "label": {"eng": "Roxburgh"}, "country": {"type": "country", "label": {"eng": "United Kingdom"}}}}, {"uri": "http://en.wikipedia.org/wiki/The_Hunting_Party_(Lost)", "type": "wiki", "score": 2, "label": {"eng": "The Hunting Party (Lost)"}}, {"uri": "http://en.wikipedia.org/wiki/Television_pilot", "type": "wiki", "score": 2, "label": {"eng": "Television pilot"}}, {"uri": "http://en.wikipedia.org/wiki/Serial_killer", "type": "wiki", "score": 2, "label": {"eng": "Serial killer"}}, {"uri": "http://en.wikipedia.org/wiki/The_Endgame", "type": "wiki", "score": 1, "label": {"eng": "The Endgame"}}, {"uri": "http://en.wikipedia.org/wiki/Manifest_(TV_series)", "type": "wiki", "score": 1, "label": {"eng": "Manifest (TV series)"}}, {"uri": "http://en.wikipedia.org/wiki/Tracker_(TV_series)", "type": "wiki", "score": 1, "label": {"eng": "Tracker (TV series)"}}, {"uri": "http://en.wikipedia.org/wiki/Drama_(film_and_television)", "type": "wiki", "score": 1, "label": {"eng": "Drama (film and television)"}}, {"uri": "http://en.wikipedia.org/wiki/Josh_Dallas", "type": "person", "score": 1, "label": {"eng": "Josh Dallas"}}, {"uri": "http://en.wikipedia.org/wiki/Justin_Hartley", "type": "person", "score": 1, "label": {"eng": "Justin Hartley"}}, {"uri": "http://en.wikipedia.org/wiki/CBS", "type": "org", "score": 1, "label": {"eng": "CBS"}}, {"uri": "http://en.wikipedia.org/wiki/Supernatural", "type": "wiki", "score": 1, "label": {"eng": "Supernatural"}}, {"uri": "http://en.wikipedia.org/wiki/NBC", "type": "org", "score": 1, "label": {"eng": "NBC"}}], "categories": [{"uri": "dmoz/Arts/Television/Programs", "label": "dmoz/Arts/Television/Programs", "wgt": 100}, {"uri": "dmoz/Recreation/Parties", "label": "dmoz/Recreation/Parties", "wgt": 100}, {"uri": "dmoz/Shopping/Children/Parties", "label": "dmoz/Shopping/Children/Parties", "wgt": 100}, {"uri": "dmoz/Home/Entertaining/Holidays", "label": "dmoz/Home/Entertaining/Holidays", "wgt": 100}, {"uri": "news/Arts_and_Entertainment", "label": "news/Arts and Entertainment", "wgt": 95}], "image": "https://tvline.com/wp-content/uploads/2024/05/melissa-roxburgh.jpg?w=650", "originalArticle": null, "storyUri": "eng-9555067", "eventUri": "eng-9555067", "location": null, "extractedDates": null, "sentiment": -0.1215686274509804, "wgt": 201, "relevance": 1}
{"uri": "8119882879", "lang": "eng", "isDuplicate": false, "date": "2024-05-09", "time": "22:42:03", "dateTime": "2024-05-09T22:42:03Z", "dateTimePub": "2024-05-09T22:41:08Z", "dataType": "news", "sim": 0.7372549176216125, "url": "https://www.justjared.com/2024/05/09/manifests-melissa-roxburgh-cast-as-leading-star-in-nbc-drama-series-the-hunting-party/", "title": "Manifest's Melissa Roxburgh Cast as Leading Star in NBC Drama Series 'The Hunting Party'! | Just Jared: Celebrity News and Gossip | Entertainment", "body": "The series was originally announced at NBC earlier in February.\n\nHere's a synopsis: \"A small team of investigators are assembled to track down and capture the most dangerous killers our country has ever seen, all of whom have just escaped from a top-secret prison that's not supposed to exist.\"\n\nHere's a character description: \"Shrewd, steadfast and obsessively curious, Bex is an ex-FBI agent recruited to an elite government task force due to her reputation as a savvy profiler who's caught some of the world's most dangerous serial killers.\"\n\nShe is best known for her starring role in Manifest, which aired three seasons on NBC before moving to Netflix for a fourth and final season.", "source": {"uri": "justjared.com", "dataType": "news", "title": "Just Jared"}, "authors": [], "concepts": [{"uri": "http://en.wikipedia.org/wiki/NBC", "type": "org", "score": 3, "label": {"eng": "NBC"}}, {"uri": "http://en.wikipedia.org/wiki/Manifest_(TV_series)", "type": "wiki", "score": 1, "label": {"eng": "Manifest (TV series)"}}, {"uri": "http://en.wikipedia.org/wiki/Offender_profiling", "type": "wiki", "score": 1, "label": {"eng": "Offender profiling"}}, {"uri": "http://en.wikipedia.org/wiki/Serial_killer", "type": "wiki", "score": 1, "label": {"eng": "Serial killer"}}, {"uri": "http://en.wikipedia.org/wiki/Netflix", "type": "wiki", "score": 1, "label": {"eng": "Netflix"}}], "categories": [{"uri": "dmoz/Arts/Television/Programs", "label": "dmoz/Arts/Television/Programs", "wgt": 100}, {"uri": "dmoz/Society/Crime/Murder", "label": "dmoz/Society/Crime/Murder", "wgt": 100}, {"uri": "dmoz/Games/Online/Roleplaying", "label": "dmoz/Games/Online/Roleplaying", "wgt": 100}, {"uri": "dmoz/Arts/Animation/Cartoons", "label": "dmoz/Arts/Animation/Cartoons", "wgt": 100}, {"uri": "news/Arts_and_Entertainment", "label": "news/Arts and Entertainment", "wgt": 62}], "image": "https://cdn01.justjared.com/wp-content/uploads/headlines/2024/05/manifest-melissa-social.jpg", "originalArticle": null, "storyUri": "eng-9555067", "eventUri": "eng-9555067", "location": null, "extractedDates": null, "sentiment": -0.0980392156862745, "wgt": 188, "relevance": 1}
{"eng-9555067": {"articles": {"results": [{"uri": "8119882879", "lang": "eng", "isDuplicate": false, "date": "2024-05-09", "time": "22:42:03", "dateTime": "2024-05-09T22:42:03Z", "dateTimePub": "2024-05-09T22:41:08Z", "dataType": "news", "sim": 0.7372549176216125, "url": "https://www.justjared.com/2024/05/09/manifests-melissa-roxburgh-cast-as-leading-star-in-nbc-drama-series-the-hunting-party/", "title": "Manifest's Melissa Roxburgh Cast as Leading Star in NBC Drama Series 'The Hunting Party'! | Just Jared: Celebrity News and Gossip | Entertainment", "body": "The series was originally announced at NBC earlier in February.\n\nHere's a synopsis: \"A small team of investigators are assembled to track down and capture the most dangerous killers our country has ever seen, all of whom have just escaped from a top-secret prison that's not supposed to exist.\"\n\nHere's a character description: \"Shrewd, steadfast and obsessively curious, Bex is an ex-FBI agent recruited to an elite government task force due to her reputation as a savvy profiler who's caught some of the world's most dangerous serial killers.\"\n\nShe is best known for her starring role in Manifest, which aired three seasons on NBC before moving to Netflix for a fourth and final season.", "source": {"uri": "justjared.com", "dataType": "news", "title": "Just Jared"}, "authors": [], "concepts": [{"uri": "http://en.wikipedia.org/wiki/NBC", "type": "org", "score": 3, "label": {"eng": "NBC"}}, {"uri": "http://en.wikipedia.org/wiki/Manifest_(TV_series)", "type": "wiki", "score": 1, "label": {"eng": "Manifest (TV series)"}}, {"uri": "http://en.wikipedia.org/wiki/Offender_profiling", "type": "wiki", "score": 1, "label": {"eng": "Offender profiling"}}, {"uri": "http://en.wikipedia.org/wiki/Serial_killer", "type": "wiki", "score": 1, "label": {"eng": "Serial killer"}}, {"uri": "http://en.wikipedia.org/wiki/Netflix", "type": "wiki", "score": 1, "label": {"eng": "Netflix"}}], "categories": [{"uri": "dmoz/Arts/Television/Programs", "label": "dmoz/Arts/Television/Programs", "wgt": 100}, {"uri": "dmoz/Society/Crime/Murder", "label": "dmoz/Society/Crime/Murder", "wgt": 100}, {"uri": "dmoz/Games/Online/Roleplaying", "label": "dmoz/Games/Online/Roleplaying", "wgt": 100}, {"uri": "dmoz/Arts/Animation/Cartoons", "label": "dmoz/Arts/Animation/Cartoons", "wgt": 100}, {"uri": "news/Arts_and_Entertainment", "label": "news/Arts and Entertainment", "wgt": 62}], "image": "https://cdn01.justjared.com/wp-content/uploads/headlines/2024/05/manifest-melissa-social.jpg", "originalArticle": null, "storyUri": "eng-9555067", "eventUri": "eng-9555067", "location": null, "extractedDates": null, "sentiment": -0.0980392156862745, "wgt": 452990523, "relevance": 2}], "totalResults": 5, "page": 1, "count": 1, "pages": 5}}}
