{"uri": "eng-9554947", "concepts": [{"uri": "http://en.wikipedia.org/wiki/Defenceman", "type": "wiki", "score": 100, "label": {"eng": "Defenceman"}}, {"uri": "http://en.wikipedia.org/wiki/Playoffs", "type": "wiki", "score": 80, "label": {"eng": "Playoffs"}}, {"uri": "http://en.wikipedia.org/wiki/Vancouver", "type": "loc", "score": 64, "label": {"eng": "Vancouver"}, "location": {"type": "place", "label": {"eng": "Vancouver"}, "country": {"type": "country", "label": {"eng": "Canada"}}}}, {"uri": "http://en.wikipedia.org/wiki/Edmonton", "type": "loc", "score": 64, "label": {"eng": "Edmonton"}, "location": {"type": "place", "label": {"eng": "Edmonton"}, "country": {"type": "country", "label": {"eng": "Canada"}}}}], "eventDate": "2024-05-09", "totalArticleCount": 5, "title": {"eng": "Soucy is making Oilers fans from his Alberta hometown cheer for Canucks"}, "summary": {"eng": "Good Co. Bars is your home for the playoffs! Enjoy $5 beers, prizes, a full game-day experience, and the best atmosphere to catch the game. Join us at any of our five locations.\n\nPlaying against the Edmonton Oilers means a little extra for one Vancouver Canucks defenceman.\n\nThe Alberta-born Carson Soucy explained today that he's got an extra chip on his shoulder facing off against his childhood team.\n\n\"It's a little extra motivation, I guess,\" chuckled the 29-year-old defenceman this morning when"}, "location": {"type": "place", "label": {"eng": "Edmonton"}, "country": {"type": "country", "label": {"eng": "Canada"}}}, "categories": [{"uri": "dmoz/Games/Video_Games/Browser_Based", "label": "dmoz/Games/Video Games/Browser Based", "wgt": 11}, {"uri": "dmoz/Games/Video_Games/Adventure", "label": "dmoz/Games/Video Games/Adventure", "wgt": 100}, {"uri": "dmoz/Games/Board_Games/Historical", "label": "dmoz/Games/Board Games/Historical", "wgt": 100}, {"uri": "news/Sports", "label": "news/Sports", "wgt": 86}], "articleCounts": {"eng": 5}, "sentiment": 0.1137254901960785}
{"uri": "2024-05-350245980", "lang": "eng", "isDuplicate": false, "date": "2024-05-09", "time": "12:52:23", "dateTime": "2024-05-09T12:52:23Z", "dateTimePub": "2024-05-09T05:44:20Z", "dataType": "news", "sim": 0.8705882430076599, "url": "https://canoe.com/sports/dont-look-now-but-the-canucks-are-still-beating-the-edmonton-oilers/wcm/58e066c9-d3f3-47f2-a19b-6dd4e9ce6a15", "title": "Don't look now, but Canucks are still beating Edmonton Oilers", "body": "If the Edmonton Oilers wanted to dismiss Vancouver's 4-0 regular season series sweep because the games happened six months ago, the Canucks have just given them some damning new evidence to process.\n\nIn a game the Oilers seemed to have well in hand, up 4-1 late in the second period, the Canucks stormed back with four straight goals to post a stunning (if you're Edmonton) 5-4 decision that might just reinforce everything we saw in the regular season.\n\n\"Up until 10 minutes left in the third I thought we were controlling the action,\" said Oilers defenceman Mattias Ekholm, still trying to piece together what went so wrong so fast. \"Sometimes that happens. It's the emotional up's and downs of the playoffs -- they get three quick ones and that's the game right there.\"", "source": {"uri": "canoe.com", "dataType": "news", "title": "Canoe"}, "authors": [{"uri": "robert_tychkowski@canoe.com", "name": "Robert Tychkowski", "type": "author", "isAgency": false}], "concepts": [{"uri": "http://en.wikipedia.org/wiki/Edmonton_Oilers", "type": "wiki", "score": 5, "label": {"eng": "Edmonton Oilers"}}, {"uri": "http://en.wikipedia.org/wiki/Vancouver", "type": "loc", "score": 3, "label": {"eng": "Vancouver"}, "location": {"type": "place", "label": {"eng": "Vancouver"}, "country": {"type": "country", "label": {"eng": "Canada"}}}}, {"uri": "http://en.wikipedia.org/wiki/Edmonton", "type": "loc", "score": 2, "label": {"eng": "Edmonton"}, "location": {"type": "place", "label": {"eng": "Edmonton"}, "country": {"type": "country", "label": {"eng": "Canada"}}}}, {"uri": "http://en.wikipedia.org/wiki/Defenceman", "type": "wiki", "score": 1, "label": {"eng": "Defenceman"}}, {"uri": "http://en.wikipedia.org/wiki/Playoffs", "type": "wiki", "score": 1, "label": {"eng": "Playoffs"}}], "categories": [{"uri": "dmoz/Games/Video_Games/Browser_Based", "label": "dmoz/Games/Video Games/Browser Based", "wgt": 14}, {"uri": "dmoz/Games/Video_Games/Downloads", "label": "dmoz/Games/Video Games/Downloads", "wgt": 13}, {"uri": "dmoz/Games/Video_Games/Computer_Platforms", "label": "dmoz/Games/Video Games/Computer Platforms", "wgt": 13}, {"uri": "dmoz/Games/Board_Games/Print_and_Play", "label": "dmoz/Games/Board Games/Print and Play", "wgt": 13}, {"uri": "dmoz/Games/Board_Games/Developers_and_Publishers", "label": "dmoz/Games/Board Games/Developers and Publishers", "wgt": 14}, {"uri": "news/Sports", "label": "news/Sports", "wgt": 89}], "image": "https://smartcdn.gprod.postmedia.digital/canoe/wp-content/uploads/2024/05/2152122988.jpg?quality=100&strip=all", "originalArticle": null, "storyUri": "eng-9554947", "eventUri": "eng-9554947", "location": null, "extractedDates": null, "sentiment": -0.09019607843137256, "wgt": 222, "relevance": 1}
{"uri": "8119060985", "lang": "eng", "isDuplicate": false, "date": "2024-05-09", "time": "11:42:43", "dateTime": "2024-05-09T11:42:43Z", "dateTimePub": "2024-05-09T11:42:26Z", "dataType": "news", "sim": 0.8549019694328308, "url": "https://torontosun.com/sports/dont-look-now-but-the-canucks-are-still-beating-the-edmonton-oilers/wcm/3f92a78e-ccb3-4c99-b39c-2a59c71f0309", "title": "Ugly collapse as Oilers hand away Game 1 to Canucks", "body": "In a game the Oilers seemed to have well in hand, up 4-1 late in the second period, the Canucks stormed back with four straight goals to post a stunning (if you're Edmonton) 5-4 decision that might just reinforce everything we saw in the regular season.\n\n\"Up until 10 minutes left in the third I thought we were controlling the action,\" said Oilers defenceman Mattias Ekholm, still trying to piece together what went so wrong so fast. \"Sometimes that happens. It's the emotional up's and downs of the playoffs -- they get three quick ones and that's the game right there.\"", "source": {"uri": "torontosun.com", "dataType": "news", "title": "Toronto Sun"}, "authors": [], "concepts": [{"uri": "http://en.wikipedia.org/wiki/Edmonton", "type": "loc", "score": 2, "label": {"eng": "Edmonton"}, "location": {"type": "place", "label": {"eng": "Edmonton"}, "country": {"type": "country", "label": {"eng": "Canada"}}}}, {"uri": "http://en.wikipedia.org/wiki/Defenceman", "type": "wiki", "score": 1, "label": {"eng": "Defenceman"}}, {"uri": "http://en.wikipedia.org/wiki/Playoffs", "type": "wiki", "score": 1, "label": {"eng": "Playoffs"}}], "categories": [{"uri": "dmoz/Games/Video_Games/Adventure", "label": "dmoz/Games/Video Games/Adventure", "wgt": 100}, {"uri": "dmoz/Games/Board_Games/Historical", "label": "dmoz/Games/Board Games/Historical", "wgt": 100}, {"uri": "dmoz/Games/Game_Studies/Articles", "label": "dmoz/Games/Game Studies/Articles", "wgt": 100}, {"uri": "dmoz/Games/Tile_Games", "label": "dmoz/Games/Tile Games", "wgt": 100}, {"uri": "dmoz/Games/Dice/Farkle", "label": "dmoz/Games/Dice/Farkle", "wgt": 100}, {"uri": "news/Sports", "label": "news/Sports", "wgt": 79}], "image": "https://smartcdn.gprod.postmedia.digital/torontosun/wp-content/uploads/2024/05/2152122988.jpg?quality=100&strip=all", "originalArticle": null, "storyUri": "eng-9554947", "eventUri": "eng-9554947", "location": null, "extractedDates": null, "sentiment": 0.1058823529411765, "wgt": 218, "relevance": 1}
{"uri": "2024-05-350660393", "lang": "eng", "isDuplicate": false, "date": "2024-05-09", "time": "20:19:19", "dateTime": "2024-05-09T20:19:19Z", "dateTimePub": "2024-05-09T20:12:41Z", "dataType": "news", "sim": 0.7215686440467834, "url": "https://dailyhive.com/vancouver/soucy-making-oilers-fans-alberta-cheer-canucks", "title": "Soucy is making Oilers fans from his Alberta hometown cheer for Canucks", "body": "Good Co. Bars is your home for the playoffs! Enjoy $5 beers, prizes, a full game-day experience, and the best atmosphere to catch the game. Join us at any of our five locations.\n\nPlaying against the Edmonton Oilers means a little extra for one Vancouver Canucks defenceman.\n\nThe Alberta-born Carson Soucy explained today that he's got an extra chip on his shoulder facing off against his childhood team.\n\n\"It's a little extra motivation, I guess,\" chuckled the 29-year-old defenceman this morning when asked his feelings on the subject.\n\nSoucy was born in Viking, Alberta and grew up in Irma, Alberta, both towns firmly in Oilers country near the centre of the province.\n\nThe 6-foot-5 defenceman has been causing a divide back in his hometown: people are forced to choose between supporting the local team or the local hero.\n\n\"It was jersey day at the school I grew up in. They've got an Oilers flag hanging outside but they've also got a Canucks,\" continued Soucy.\n\n\"They did a big pick 'em and everything. They had a big Oilers section, Vancouver section. Little more Oilers jerseys than I would've liked to see but I understand that's hard for lifetime Oilers fans to give up, to root for Canucks this postseason.\"\n\n\"I'll be taking notes on who is wearing Vancouver jerseys. Obviously, I've got a lot of relatives back home repping the Canucks jerseys yesterday so it was good to see.\"\n\nThe Canucks and Oilers have two of the most passionate fanbases in the league. The trash talk on both sides has been extreme on social media as people stand up for their club.\n\nAny playoff series pitting two Canadian teams against each other is always going to be fun. It's only been one game but this one already has the makings of an all-time classic.\n\nFor those fans back in Alberta who picked supporting the Oilers over Soucy, just know that you're fuelling the opponent.\n\n\"A little extra motivation but I understand the Oilers mean a lot to that part of Alberta so I can definitely see why there's still lots of Edmonton jerseys,\" commented Soucy with a smile.\n\nGame 2 of the second-round series starts tomorrow at 7 pm PT at Rogers Arena.", "source": {"uri": "dailyhive.com", "dataType": "news", "title": "dailyhive.com"}, "authors": [{"uri": "noah_strang@dailyhive.com", "name": "Noah Strang", "type": "author", "isAgency": false}], "concepts": [{"uri": "http://en.wikipedia.org/wiki/Defenceman", "type": "wiki", "score": 5, "label": {"eng": "Defenceman"}}, {"uri": "http://en.wikipedia.org/wiki/Playoffs", "type": "wiki", "score": 4, "label": {"eng": "Playoffs"}}, {"uri": "http://en.wikipedia.org/wiki/Carson_Soucy", "type": "person", "score": 3, "label": {"eng": "Carson Soucy"}}, {"uri": "http://en.wikipedia.org/wiki/Vancouver_Canucks", "type": "wiki", "score": 3, "label": {"eng": "Vancouver Canucks"}}, {"uri": "http://en.wikipedia.org/wiki/Edmonton_Oilers", "type": "wiki", "score": 3, "label": {"eng": "Edmonton Oilers"}}, {"uri": "http://en.wikipedia.org/wiki/Alberta", "type": "loc", "score": 3, "label": {"eng": "Alberta"}, "location": {"type": "place", "label": {"eng": "Alberta"}, "country": {"type": "country", "label": {"eng": "Canada"}}}}, {"uri": "http://en.wikipedia.org/wiki/Provinces_and_territories_of_Canada", "type": "loc", "score": 2, "label": {"eng": "Provinces and territories of Canada"}, "location": null}, {"uri": "http://en.wikipedia.org/wiki/Viking,_Alberta", "type": "loc", "score": 2, "label": {"eng": "Viking, Alberta"}, "location": {"type": "place", "label": {"eng": "Viking, Alberta"}, "country": {"type": "country", "label": {"eng": "Canada"}}}}, {"uri": "http://en.wikipedia.org/wiki/Vancouver", "type": "loc", "score": 2, "label": {"eng": "Vancouver"}, "location": {"type": "place", "label": {"eng": "Vancouver"}, "country": {"type": "country", "label": {"eng": "Canada"}}}}, {"uri": "http://en.wikipedia.org/wiki/Irma,_Alberta", "type": "loc", "score": 2, "label": {"eng": "Irma, Alberta"}, "location": {"type": "place", "label": {"eng": "Irma, Alberta"}, "country": {"type": "country", "label": {"eng": "Canada"}}}}, {"uri": "http://en.wikipedia.org/wiki/Rogers_Arena", "type": "wiki", "score": 1, "label": {"eng": "Rogers Arena"}}, {"uri": "http://en.wikipedia.org/wiki/Canadians", "type": "wiki", "score": 1, "label": {"eng": "Canadians"}}, {"uri": "http://en.wikipedia.org/wiki/Edmonton", "type": "loc", "score": 1, "label": {"eng": "Edmonton"}, "location": {"type": "place", "label": {"eng": "Edmonton"}, "country": {"type": "country", "label": {"eng": "Canada"}}}}], "categories": [{"uri": "dmoz/Games", "label": "dmoz/Games", "wgt": 9}, {"uri": "dmoz/Games/Video_Games/Browser_Based", "label": "dmoz/Games/Video Games/Browser Based", "wgt": 8}, {"uri": "dmoz/Games/Video_Games/Action", "label": "dmoz/Games/Video Games/Action", "wgt": 9}, {"uri": "dmoz/Games/Play-By-Mail", "label": "dmoz/Games/Play-By-Mail", "wgt": 9}, {"uri": "dmoz/Games/Play-By-Mail/Companies", "label": "dmoz/Games/Play-By-Mail/Companies", "wgt": 9}, {"uri": "news/Sports", "label": "news/Sports", "wgt": 93}], "image": "https://images.dailyhive.com/20240305112520/soucy-canucks-500x258.jpeg", "originalArticle": null, "storyUri": "eng-9554947", "eventUri": "eng-9554947", "location": null, "extractedDates": null, "sentiment": 0.3176470588235294, "wgt": 184, "relevance": 1}
{"uri": "8119837626", "lang": "eng", "isDuplicate": false, "date": "2024-05-09", "time": "21:50:58", "dateTime": "2024-05-09T21:50:58Z", "dateTimePub": "2024-05-09T21:50:27Z", "dataType": "news", "sim": 0.7176470756530762, "url": "https://theprovince.com/sports/hockey/nhl/vancouver-canucks/canucks-vs-oilers-carson-soucy-alberta-home-town-divided-series?taid=663d44c93ffa530001b027cb&utm_campaign=trueanthem&utm_medium=social&utm_source=twitter", "title": "Canucks vs. Oilers: Kindergarten class in Carson Soucy's Alberta hometown is divided on series", "body": "The school celebrated the opening of the best-of-seven second round series between the Canucks and Oilers on Wednesday, before Game 1 at Rogers Arena. A Canucks flag and an Oilers flag flew side by side at the front of the building. Staff and students were invited to wear Canucks or Oilers gear, and it was well divided, going off the photos put on Irma School's Facebook page.\n\n\"There were a few more Oilers jerseys than I'd like to see,\" Soucy joked during media availability on Thursday. \"I understand it's hard for lifetime Oilers fans to root for the Canucks this post-season, but I'll be taking notes on who's wearing the Vancouver jerseys.", "source": {"uri": "theprovince.com", "dataType": "news", "title": "The Province"}, "authors": [], "concepts": [{"uri": "http://en.wikipedia.org/wiki/Rogers_Arena", "type": "wiki", "score": 3, "label": {"eng": "Rogers Arena"}}, {"uri": "http://en.wikipedia.org/wiki/Facebook", "type": "org", "score": 1, "label": {"eng": "Facebook"}}, {"uri": "http://en.wikipedia.org/wiki/Vancouver", "type": "loc", "score": 1, "label": {"eng": "Vancouver"}, "location": {"type": "place", "label": {"eng": "Vancouver"}, "country": {"type": "country", "label": {"eng": "Canada"}}}}], "categories": [{"uri": "dmoz/Shopping/Home_and_Garden/Flags_and_Banners", "label": "dmoz/Shopping/Home and Garden/Flags and Banners", "wgt": 100}, {"uri": "dmoz/Recreation/Theme_Parks/Six_Flags", "label": "dmoz/Recreation/Theme Parks/Six Flags", "wgt": 100}], "image": "https://smartcdn.gprod.postmedia.digital/theprovince/wp-content/uploads/2024/05/carsonsoucy_irmaschool_kclass-1.jpg", "originalArticle": null, "storyUri": "eng-9554947", "eventUri": "eng-9554947", "location": null, "extractedDates": null, "sentiment": 0.2784313725490195, "wgt": 183, "relevance": 1}
{"uri": "8119054904", "lang": "eng", "isDuplicate": false, "date": "2024-05-09", "time": "11:39:04", "dateTime": "2024-05-09T11:39:04Z", "dateTimePub": "2024-05-09T11:38:32Z", "dataType": "news", "sim": 0.6980392336845398, "url": "https://lfpress.com/sports/dont-look-now-but-the-canucks-are-still-beating-the-edmonton-oilers/wcm/3f92a78e-ccb3-4c99-b39c-2a59c71f0309", "title": "Ugly collapse as Oilers hand away Game 1 to Canucks", "body": "If you are a Home delivery print subscriber, unlimited online access is included in your subscription. Activate your Online Access Now\n\n\"Up until 10 minutes left in the third I thought we were controlling the action,\" said Oilers defenceman Mattias Ekholm, still trying to piece together what went so wrong so fast. \"Sometimes that happens. It's the emotional up's and downs of the playoffs -- they get three quick ones and that's the game right there.\"\n\nThe Canucks scored late in the second period and then at 9:38, 13:47 and 14:26 of the third period, moving even deeper into the Oilers heads after Wednesday's Game 1 victory.\n\n\"It's tough when they get the go-ahead goal with four minutes left, that's where you have to throw a Hail-Mary at them,\" sighed Ekholm. \"I thought we tried, I thought we battled toward the end but ...\"\n\nEdmonton had 14 shots on net when they made it 4-1 with seven minutes to go in the second period. They finished with 18. They'd been great at closing out games, but this time sitting on the lead blew up in their faces.\n\n\"That happens in the playoffs,\" said Connor McDavid, who finished with one assist. \"You try to hold onto a lead and sometimes you're maybe too passive. They find a way to get two, and find a way to get a third...", "source": {"uri": "lfpress.com", "dataType": "news", "title": "London Free Press"}, "authors": [], "concepts": [{"uri": "http://en.wikipedia.org/wiki/Defenceman", "type": "wiki", "score": 3, "label": {"eng": "Defenceman"}}, {"uri": "http://en.wikipedia.org/wiki/Playoffs", "type": "wiki", "score": 2, "label": {"eng": "Playoffs"}}, {"uri": "http://en.wikipedia.org/wiki/Connor_McDavid", "type": "person", "score": 1, "label": {"eng": "Connor McDavid"}}, {"uri": "http://en.wikipedia.org/wiki/Edmonton", "type": "loc", "score": 1, "label": {"eng": "Edmonton"}, "location": {"type": "place", "label": {"eng": "Edmonton"}, "country": {"type": "country", "label": {"eng": "Canada"}}}}], "categories": [{"uri": "dmoz/Recreation/Humor/Useless_Pages", "label": "dmoz/Recreation/Humor/Useless Pages", "wgt": 100}, {"uri": "dmoz/Games/Video_Games/Adventure", "label": "dmoz/Games/Video Games/Adventure", "wgt": 100}, {"uri": "dmoz/Society/Transgendered/Coming_Out", "label": "dmoz/Society/Transgendered/Coming Out", "wgt": 100}, {"uri": "dmoz/Recreation/Humor/Interactive", "label": "dmoz/Recreation/Humor/Interactive", "wgt": 100}, {"uri": "dmoz/Games/Board_Games/Historical", "label": "dmoz/Games/Board Games/Historical", "wgt": 100}, {"uri": "news/Sports", "label": "news/Sports", "wgt": 82}], "image": "https://smartcdn.gprod.postmedia.digital/torontosun/wp-content/uploads/2024/05/2152122988.jpg?quality=100&strip=all", "originalArticle": null, "storyUri": "eng-9554947", "eventUri": "eng-9554947", "location": null, "extractedDates": null, "sentiment": -0.02745098039215688, "wgt": 178, "relevance": 1}
{"eng-9554947": {"articles": {"results": [{"uri": "8119888687", "lang": "eng", "isDuplicate": false, "date": "2024-05-09", "time": "22:50:07", "dateTime": "2024-05-09T22:50:07Z", "dateTimePub": "2024-05-09T22:49:29Z", "dataType": "news", "sim": 0.7529411911964417, "url": "https://edmontonsun.com/sports/hockey/nhl/edmonton-oilers/by-the-numbers-breaking-down-game-1-that-got-away-from-the-oilers", "title": "BY THE NUMBERS: Breaking down Game 1 that got away from the Oilers", "body": "Per cent success rate on faceoffs for Canucks centre Elias Lindholm, who went 14-for-18. The top Oilers player, Ryan McLeod, went 6-for-9 (66.7 per cent). Every other Edmonton player was 50 per cent or less.\n\nYears since the last time the Oilers and Canucks faced each other in the playoffs.\n\nRating by Canucks forward Dakota Joshua, who had a goal and two assists in 14:30 of ice time, compared to a minus-3 rating for both of the Oilers defensive pairing of Darnell Nurse and Cody Ceci.\n\nGoal-lead blown by the Oilers with 26:49 left in the game.\n\nTimes the Canucks went on the power play, only to come up empty handed as the Oilers penalty kill has gone a perfect 15-for-15 so far in the playoffs.\n\nGoals by Oilers forward Zach Hyman to reclaim the league lead with nine so far in the playoffs.", "source": {"uri": "edmontonsun.com", "dataType": "news", "title": "Edmonton Sun"}, "authors": [], "concepts": [{"uri": "http://en.wikipedia.org/wiki/Ryan_McLeod", "type": "wiki", "score": 3, "label": {"eng": "Ryan McLeod"}}, {"uri": "http://en.wikipedia.org/wiki/Elias_Lindholm", "type": "person", "score": 3, "label": {"eng": "Elias Lindholm"}}, {"uri": "http://en.wikipedia.org/wiki/Face-off", "type": "wiki", "score": 3, "label": {"eng": "Face-off"}}, {"uri": "http://en.wikipedia.org/wiki/Edmonton", "type": "loc", "score": 3, "label": {"eng": "Edmonton"}, "location": {"type": "place", "label": {"eng": "Edmonton"}, "country": {"type": "country", "label": {"eng": "Canada"}}}}, {"uri": "http://en.wikipedia.org/wiki/Forward_(ice_hockey)", "type": "wiki", "score": 2, "label": {"eng": "Forward (ice hockey)"}}, {"uri": "http://en.wikipedia.org/wiki/Assist_(ice_hockey)", "type": "wiki", "score": 2, "label": {"eng": "Assist (ice hockey)"}}, {"uri": "http://en.wikipedia.org/wiki/Playoffs", "type": "wiki", "score": 2, "label": {"eng": "Playoffs"}}, {"uri": "http://en.wikipedia.org/wiki/Zach_Hyman", "type": "person", "score": 1, "label": {"eng": "Zach Hyman"}}, {"uri": "http://en.wikipedia.org/wiki/Cody_Ceci", "type": "person", "score": 1, "label": {"eng": "Cody Ceci"}}, {"uri": "http://en.wikipedia.org/wiki/Darnell_Nurse", "type": "person", "score": 1, "label": {"eng": "Darnell Nurse"}}, {"uri": "http://en.wikipedia.org/wiki/Short-handed", "type": "wiki", "score": 1, "label": {"eng": "Short-handed"}}], "categories": [{"uri": "dmoz/Sports/Hockey/Ice_Hockey", "label": "dmoz/Sports/Hockey/Ice Hockey", "wgt": 100}, {"uri": "dmoz/Games/Tile_Games/Mah_Jongg", "label": "dmoz/Games/Tile Games/Mah Jongg", "wgt": 100}, {"uri": "dmoz/Sports/Hockey/History", "label": "dmoz/Sports/Hockey/History", "wgt": 100}, {"uri": "dmoz/Games/Dice/Farkle", "label": "dmoz/Games/Dice/Farkle", "wgt": 100}, {"uri": "dmoz/Games/Dice/Bluff", "label": "dmoz/Games/Dice/Bluff", "wgt": 100}, {"uri": "news/Sports", "label": "news/Sports", "wgt": 97}], "image": "https://smartcdn.gprod.postmedia.digital/edmontonjournal/wp-content/uploads/2024/05/CP171170341.jpg", "originalArticle": null, "storyUri": "eng-9554947", "eventUri": "eng-9554947", "location": null, "extractedDates": null, "sentiment": 0.03529411764705892, "wgt": 452991007, "relevance": 2}], "totalResults": 8, "page": 1, "count": 1, "pages": 8}}}
