{"uri": "eng-9555128", "concepts": [{"uri": "http://en.wikipedia.org/wiki/Paris", "type": "loc", "score": 100, "label": {"eng": "Paris"}, "location": {"type": "place", "label": {"eng": "Paris"}, "country": {"type": "country", "label": {"eng": "France"}}}}, {"uri": "http://en.wikipedia.org/wiki/French_language", "type": "wiki", "score": 26, "label": {"eng": "French language"}}, {"uri": "http://en.wikipedia.org/wiki/BFM_TV", "type": "org", "score": 19, "label": {"eng": "BFM TV"}}, {"uri": "http://en.wikipedia.org/wiki/Police", "type": "wiki", "score": 18, "label": {"eng": "Police"}}, {"uri": "http://en.wikipedia.org/wiki/Pistol", "type": "wiki", "score": 16, "label": {"eng": "Pistol"}}, {"uri": "http://en.wikipedia.org/wiki/Agence_France-Presse", "type": "wiki", "score": 16, "label": {"eng": "Agence France-Presse"}}, {"uri": "http://en.wikipedia.org/wiki/Domestic_violence", "type": "wiki", "score": 8, "label": {"eng": "Domestic violence"}}], "eventDate": "2024-05-09", "totalArticleCount": 10, "title": {"eng": "Man shoots and wounds two police officers in Paris, French media reports", "rus": "\u0412 \u041f\u0430\u0440\u0438\u0436\u0435 \u043d\u0430\u0440\u0443\u0448\u0438\u0442\u0435\u043b\u044c \u043e\u0442\u043a\u0440\u044b\u043b \u0441\u0442\u0440\u0435\u043b\u044c\u0431\u0443 \u0432 \u043f\u043e\u043b\u0438\u0446\u0435\u0439\u0441\u043a\u043e\u043c \u0443\u0447\u0430\u0441\u0442\u043a\u0435, \u043f\u0438\u0448\u0443\u0442 \u0421\u041c\u0418"}, "summary": {"eng": "A man shot and wounded two police officers in Paris after he got hold of one of the officer's weapons while he was being held at a police station, AFP and BFM TV reported on Thursday.\n\nThe incident occurred on Thursday evening at a police station in Paris' 13th district. The two wounded police officers have been taken to hospital, the French media reports said.\n\nThe suspect had initially been arrested and taken to the police station to face questioning over possible domestic violence.", "rus": "\u041c\u041e\u0421\u041a\u0412\u0410, 10 \u043c\u0430\u044f - \u0420\u0418\u0410 \u041d\u043e\u0432\u043e\u0441\u0442\u0438. \u041d\u0430\u0440\u0443\u0448\u0438\u0442\u0435\u043b\u044c, \u0434\u043e\u0441\u0442\u0430\u0432\u043b\u0435\u043d\u043d\u044b\u0439 \u0432 \u043f\u043e\u043b\u0438\u0446\u0435\u0439\u0441\u043a\u0438\u0439 \u0443\u0447\u0430\u0441\u0442\u043e\u043a \u0432 \u041f\u0430\u0440\u0438\u0436\u0435, \u043e\u0442\u043e\u0431\u0440\u0430\u043b \u043e\u0440\u0443\u0436\u0438\u0435 \u0443 \u043f\u0440\u0430\u0432\u043e\u043e\u0445\u0440\u0430\u043d\u0438\u0442\u0435\u043b\u0435\u0439 \u0438 \u0442\u044f\u0436\u0435\u043b\u043e \u0440\u0430\u043d\u0438\u043b \u0434\u0432\u043e\u0438\u0445 \u0438\u0437 \u043d\u0438\u0445, \u0441\u043e\u043e\u0431\u0449\u0430\u0435\u0442 \u0433\u0430\u0437\u0435\u0442\u0430 Parisien \u0441\u043e \u0441\u0441\u044b\u043b\u043a\u043e\u0439 \u043d\u0430 \u0438\u0441\u0442\u043e\u0447\u043d\u0438\u043a\u0438. \u0418\u043d\u0446\u0438\u0434\u0435\u043d\u0442 \u043f\u0440\u043e\u0438\u0437\u043e\u0448\u0435\u043b \u043f\u0440\u0438\u043c\u0435\u0440\u043d\u043e \u0432 22.25 (23.25 \u043c\u0441\u043a) \u0432 \u043f\u043e\u043b\u0438\u0446\u0435\u0439\u0441\u043a\u043e\u043c \u043a\u043e\u043c\u0438\u0441\u0441\u0430\u0440\u0438\u0430\u0442\u0435 13-\u0433\u043e \u043e\u043a\u0440\u0443\u0433\u0430"}, "location": {"type": "place", "label": {"eng": "Paris"}, "country": {"type": "country", "label": {"eng": "France"}}}, "categories": [{"uri": "dmoz/Society/Crime", "label": "dmoz/Society/Crime", "wgt": 100}, {"uri": "dmoz/Society/Crime/Murder", "label": "dmoz/Society/Crime/Murder", "wgt": 100}, {"uri": "dmoz/Society/Crime/Prevention", "label": "dmoz/Society/Crime/Prevention", "wgt": 100}], "articleCounts": {"eng": 5, "rus": 5}, "sentiment": -0.2392156862745098}
{"uri": "8119861759", "lang": "eng", "isDuplicate": false, "date": "2024-05-09", "time": "22:17:02", "dateTime": "2024-05-09T22:17:02Z", "dateTimePub": "2024-05-09T22:16:24Z", "dataType": "news", "sim": 0.8823529481887817, "url": "https://www.devdiscourse.com/article/law-order/2933918-man-shoots-and-wounds-two-police-officers-in-paris-french-media-reports", "title": "Man shoots and wounds two police officers in Paris, French media reports | Law-Order", "body": "A man shot and wounded two police officers in Paris after he got hold of one of the officer's weapons while he was being held at a police station, AFP and BFM TV reported on Thursday. The incident occurred on Thursday evening at a police station in Paris' 13th district. The two wounded police officers have been taken to hospital, the French media reports said.\n\nA man shot and wounded two police officers in Paris after he got hold of one of the officer's weapons while he was being held at a police station, AFP and BFM TV reported on Thursday.\n\nThe incident occurred on Thursday evening at a police station in Paris' 13th district. The two wounded police officers have been taken to hospital, the French media reports said. The suspect had initially been arrested and taken to the police station to face questioning over possible domestic violence.\n\n(This story has not been edited by Devdiscourse staff and is auto-generated from a syndicated feed.)", "source": {"uri": "devdiscourse.com", "dataType": "news", "title": "Devdiscourse"}, "authors": [], "concepts": [{"uri": "http://en.wikipedia.org/wiki/Paris", "type": "loc", "score": 5, "label": {"eng": "Paris"}, "location": {"type": "place", "label": {"eng": "Paris"}, "country": {"type": "country", "label": {"eng": "France"}}}}, {"uri": "http://en.wikipedia.org/wiki/New_York's_13th_congressional_district", "type": "loc", "score": 3, "label": {"eng": "New York's 13th congressional district"}, "location": null}, {"uri": "http://en.wikipedia.org/wiki/BFM_TV", "type": "org", "score": 3, "label": {"eng": "BFM TV"}}, {"uri": "http://en.wikipedia.org/wiki/French_language", "type": "wiki", "score": 2, "label": {"eng": "French language"}}, {"uri": "http://en.wikipedia.org/wiki/Domestic_violence", "type": "wiki", "score": 1, "label": {"eng": "Domestic violence"}}, {"uri": "http://en.wikipedia.org/wiki/Agence_France-Presse", "type": "wiki", "score": 1, "label": {"eng": "Agence France-Presse"}}], "categories": [{"uri": "dmoz/Society/Crime", "label": "dmoz/Society/Crime", "wgt": 100}, {"uri": "dmoz/Society/Crime/Prevention", "label": "dmoz/Society/Crime/Prevention", "wgt": 100}, {"uri": "dmoz/Society/Crime/Murder", "label": "dmoz/Society/Crime/Murder", "wgt": 100}, {"uri": "dmoz/Society/Crime/Unsolved", "label": "dmoz/Society/Crime/Unsolved", "wgt": 100}], "image": "https://www.devdiscourse.com/remote.axd?https://devdiscourse.blob.core.windows.net/imagegallery/03_03_2020_19_05_15_9474824.jpg?width=920&format=jpeg", "originalArticle": null, "storyUri": "eng-9555128", "eventUri": "eng-9555128", "location": null, "extractedDates": null, "sentiment": -0.2156862745098039, "wgt": 225, "relevance": 1}
{"uri": "8119861148", "lang": "eng", "isDuplicate": false, "date": "2024-05-09", "time": "22:16:20", "dateTime": "2024-05-09T22:16:20Z", "dateTimePub": "2024-05-09T22:15:50Z", "dataType": "news", "sim": 0.8784313797950745, "url": "https://www.jpost.com/breaking-news/article-800680", "title": "Man shoots and wounds two police officers in Paris, French media reports", "body": "A man shot and wounded two police officers in Paris after he got hold of one of the officer's weapons while he was being held at a police station, AFP and BFM TV reported on Thursday.\n\nThe incident occurred on Thursday evening at a police station in Paris' 13th district. The two wounded police officers have been taken to hospital, the French media reports said.\n\nThe suspect had initially been arrested and taken to the police station to face questioning over possible domestic violence.", "source": {"uri": "jpost.com", "dataType": "news", "title": "The Jerusalem Post"}, "authors": [], "concepts": [{"uri": "http://en.wikipedia.org/wiki/Paris", "type": "loc", "score": 4, "label": {"eng": "Paris"}, "location": {"type": "place", "label": {"eng": "Paris"}, "country": {"type": "country", "label": {"eng": "France"}}}}, {"uri": "http://en.wikipedia.org/wiki/BFM_TV", "type": "org", "score": 2, "label": {"eng": "BFM TV"}}, {"uri": "http://en.wikipedia.org/wiki/French_language", "type": "wiki", "score": 1, "label": {"eng": "French language"}}, {"uri": "http://en.wikipedia.org/wiki/Domestic_violence", "type": "wiki", "score": 1, "label": {"eng": "Domestic violence"}}, {"uri": "http://en.wikipedia.org/wiki/Agence_France-Presse", "type": "wiki", "score": 1, "label": {"eng": "Agence France-Presse"}}], "categories": [{"uri": "dmoz/Society/Crime", "label": "dmoz/Society/Crime", "wgt": 100}, {"uri": "dmoz/Society/Crime/Prevention", "label": "dmoz/Society/Crime/Prevention", "wgt": 100}, {"uri": "dmoz/Society/Crime/Murder", "label": "dmoz/Society/Crime/Murder", "wgt": 100}, {"uri": "dmoz/Society/Crime/Unsolved", "label": "dmoz/Society/Crime/Unsolved", "wgt": 100}], "image": "https://images.jpost.com/image/upload/f_auto,fl_lossy/c_fill,g_faces:center,h_407,w_690/534687", "originalArticle": null, "storyUri": "eng-9555128", "eventUri": "eng-9555128", "location": null, "extractedDates": null, "sentiment": -0.3254901960784313, "wgt": 224, "relevance": 1}
{"uri": "8119910536", "lang": "eng", "isDuplicate": false, "date": "2024-05-09", "time": "23:17:04", "dateTime": "2024-05-09T23:17:04Z", "dateTimePub": "2024-05-09T23:16:32Z", "dataType": "news", "sim": 0.7607843279838562, "url": "https://www.straitstimes.com/world/europe/man-shoots-two-officers-in-paris-police-station-source", "title": "Man shoots two officers in Paris police station: Source", "body": "PARIS - A man shot and seriously wounded two officers in a Paris police station on May 9 after grabbing a weapon, a source close to the case told AFP.\n\nThe officers had just arrested the man and were searching him when he seized one of their weapons and opened fire, according to a police source.\n\nThe source close to the case said the incident happened in the French capital's 13th district shortly before 10.30pm (4.30am Singapore time), adding that the officers were in critical care. AFP", "source": {"uri": "straitstimes.com", "dataType": "news", "title": "The Straits Times"}, "authors": [], "concepts": [{"uri": "http://en.wikipedia.org/wiki/Paris_Police_Prefecture", "type": "loc", "score": 3, "label": {"eng": "Paris Police Prefecture"}, "location": null}, {"uri": "http://en.wikipedia.org/wiki/Paris", "type": "loc", "score": 3, "label": {"eng": "Paris"}, "location": {"type": "place", "label": {"eng": "Paris"}, "country": {"type": "country", "label": {"eng": "France"}}}}, {"uri": "http://en.wikipedia.org/wiki/French_language", "type": "wiki", "score": 1, "label": {"eng": "French language"}}, {"uri": "http://en.wikipedia.org/wiki/Agence_France-Presse", "type": "wiki", "score": 1, "label": {"eng": "Agence France-Presse"}}, {"uri": "http://en.wikipedia.org/wiki/Singapore", "type": "loc", "score": 1, "label": {"eng": "Singapore"}, "location": {"type": "country", "label": {"eng": "Singapore"}}}], "categories": [{"uri": "dmoz/Society/Crime", "label": "dmoz/Society/Crime", "wgt": 100}, {"uri": "dmoz/Society/Law/Law_Enforcement", "label": "dmoz/Society/Law/Law Enforcement", "wgt": 100}, {"uri": "dmoz/Society/Issues/Crime_and_Justice", "label": "dmoz/Society/Issues/Crime and Justice", "wgt": 100}, {"uri": "dmoz/Society/Crime/Prevention", "label": "dmoz/Society/Crime/Prevention", "wgt": 100}, {"uri": "dmoz/Society/Crime/Murder", "label": "dmoz/Society/Crime/Murder", "wgt": 100}], "image": "https://static1.straitstimes.com.sg/s3fs-public/styles/large30x20/public/articles/2024/05/10/ST-logo-placeholder_1.jpg?VersionId=te9nxp8QYdy7UqXqqgRChfov8ry7zhq.", "originalArticle": null, "storyUri": "eng-9555128", "eventUri": "eng-9555128", "location": {"type": "place", "label": {"eng": "Paris"}, "country": {"type": "country", "label": {"eng": "France"}}}, "extractedDates": [{"amb": false, "imp": true, "date": "2024-05-09", "textStart": 83, "textEnd": 88}], "sentiment": -0.2549019607843137, "wgt": 194, "relevance": 1}
{"uri": "2024-05-350736976", "lang": "eng", "isDuplicate": false, "date": "2024-05-09", "time": "22:14:24", "dateTime": "2024-05-09T22:14:24Z", "dateTimePub": "2024-05-09T22:14:09Z", "dataType": "news", "sim": 0.7529411911964417, "url": "https://www.streetinsider.com/Reuters/Man+shoots+and+wounds+two+police+officers+in+Paris%2C+French+media+reports/23204498.html", "title": "Man shoots and wounds two police officers in Paris, French media reports", "body": "After-hours movers: Reddit, Lyft gain; Upstart, Twilio, ZoomInfo fall\n\nPARIS (Reuters) -A man shot and wounded two police officers in Paris after he got hold of one of the officer's weapons while he was being held at a police station, AFP and BFM TV reported on Thursday.\n\nThe incident occurred on Thursday evening at a police station in Paris' 13th district. The two wounded police officers have been taken to hospital, the French media reports said.\n\nThe suspect had initially been arrested and taken to the police station to face questioning over possible domestic violence.\n\n(Reporting by Sudip Kar-Gupta and Camille Raynaud;Additional reporting by Gursimran Kaur in BengaluruEditing by Chris Reese)", "source": {"uri": "streetinsider.com", "dataType": "news", "title": "StreetInsider.com"}, "authors": [], "concepts": [{"uri": "http://en.wikipedia.org/wiki/Paris", "type": "loc", "score": 5, "label": {"eng": "Paris"}, "location": {"type": "place", "label": {"eng": "Paris"}, "country": {"type": "country", "label": {"eng": "France"}}}}, {"uri": "http://en.wikipedia.org/wiki/Lyft", "type": "org", "score": 3, "label": {"eng": "Lyft"}}, {"uri": "http://en.wikipedia.org/wiki/Twilio", "type": "wiki", "score": 3, "label": {"eng": "Twilio"}}, {"uri": "http://en.wikipedia.org/wiki/Reddit", "type": "org", "score": 3, "label": {"eng": "Reddit"}}, {"uri": "http://en.wikipedia.org/wiki/French_language", "type": "wiki", "score": 3, "label": {"eng": "French language"}}, {"uri": "http://en.wikipedia.org/wiki/Reuters", "type": "wiki", "score": 3, "label": {"eng": "Reuters"}}, {"uri": "http://en.wikipedia.org/wiki/BFM_TV", "type": "org", "score": 2, "label": {"eng": "BFM TV"}}, {"uri": "http://en.wikipedia.org/wiki/Agence_France-Presse", "type": "wiki", "score": 2, "label": {"eng": "Agence France-Presse"}}, {"uri": "http://en.wikipedia.org/wiki/Domestic_violence", "type": "wiki", "score": 1, "label": {"eng": "Domestic violence"}}], "categories": [{"uri": "dmoz/Society/Law/Law_Enforcement", "label": "dmoz/Society/Law/Law Enforcement", "wgt": 33}, {"uri": "dmoz/Society/Issues/Violence_and_Abuse", "label": "dmoz/Society/Issues/Violence and Abuse", "wgt": 12}, {"uri": "dmoz/Computers/Software/Office_Suites", "label": "dmoz/Computers/Software/Office Suites", "wgt": 11}, {"uri": "dmoz/Recreation/Birding/Trip_Reports", "label": "dmoz/Recreation/Birding/Trip Reports", "wgt": 11}, {"uri": "dmoz/Business/Major_Companies/Company_Information", "label": "dmoz/Business/Major Companies/Company Information", "wgt": 12}, {"uri": "news/Technology", "label": "news/Technology", "wgt": 55}], "image": "http://www.streetinsider.com/images/silogo-new.png", "originalArticle": null, "storyUri": "eng-9555128", "eventUri": "eng-9555128", "location": null, "extractedDates": null, "sentiment": -0.1215686274509804, "wgt": 192, "relevance": 1}
{"uri": "8119880464", "lang": "eng", "isDuplicate": false, "date": "2024-05-09", "time": "22:39:16", "dateTime": "2024-05-09T22:39:16Z", "dateTimePub": "2024-05-09T22:37:56Z", "dataType": "news", "sim": 0.7333333492279053, "url": "https://www.ndtv.com/world-news/gunman-shoots-two-officers-in-paris-police-station-report-5628841", "title": "Gunman Shoots Two Officers In Paris Police Station: Report", "body": "The officers had just arrested the man and were searching him when he seized one of their weapons, according to a police source.\n\nThe incident happened in the French capital's 13th district shortly before 10:30 pm. (Representational)\n\nParis:\n\nA man shot and seriously wounded two officers in a Paris police station on Thursday after grabbing a weapon, a source close to the case told AFP.\n\nThe officers had just arrested the man and were searching him when he seized one of their weapons and opened fire, according to a police source.\n\nPromotedListen to the latest songs, only on JioSaavn.com\n\nThe source close to the case said the incident happened in the French capital's 13th district shortly before 10:30 pm (2030 GMT), adding that the officers were in critical care.\n\n(Except for the headline, this story has not been edited by NDTV staff and is published from a syndicated feed.)", "source": {"uri": "ndtv.com", "dataType": "news", "title": "NDTV"}, "authors": [{"uri": "agence_france_presse@ndtv.com", "name": "Agence France-Presse", "type": "author", "isAgency": true}], "concepts": [{"uri": "http://en.wikipedia.org/wiki/French_language", "type": "wiki", "score": 3, "label": {"eng": "French language"}}, {"uri": "http://en.wikipedia.org/wiki/Paris_Police_Prefecture", "type": "loc", "score": 2, "label": {"eng": "Paris Police Prefecture"}, "location": null}, {"uri": "http://en.wikipedia.org/wiki/Paris", "type": "loc", "score": 2, "label": {"eng": "Paris"}, "location": {"type": "place", "label": {"eng": "Paris"}, "country": {"type": "country", "label": {"eng": "France"}}}}, {"uri": "http://en.wikipedia.org/wiki/NDTV", "type": "org", "score": 1, "label": {"eng": "NDTV"}}, {"uri": "http://en.wikipedia.org/wiki/Broadcast_syndication", "type": "org", "score": 1, "label": {"eng": "Broadcast syndication"}}, {"uri": "http://en.wikipedia.org/wiki/Agence_France-Presse", "type": "wiki", "score": 1, "label": {"eng": "Agence France-Presse"}}], "categories": [{"uri": "dmoz/Society/Crime", "label": "dmoz/Society/Crime", "wgt": 100}, {"uri": "dmoz/Society/Issues/Crime_and_Justice", "label": "dmoz/Society/Issues/Crime and Justice", "wgt": 100}, {"uri": "dmoz/Society/Crime/Prevention", "label": "dmoz/Society/Crime/Prevention", "wgt": 100}, {"uri": "dmoz/Society/Crime/Murder", "label": "dmoz/Society/Crime/Murder", "wgt": 100}, {"uri": "dmoz/Society/Crime/Unsolved", "label": "dmoz/Society/Crime/Unsolved", "wgt": 100}], "image": "https://i.ndtvimg.com/i/2018-03/police-generic-international-afp_650x400_41520126059.jpg?ver-20240506.08", "originalArticle": null, "storyUri": "eng-9555128", "eventUri": "eng-9555128", "location": null, "extractedDates": null, "sentiment": -0.2941176470588235, "wgt": 187, "relevance": 1}
{"eng-9555128": {"articles": {"results": [{"uri": "8119910536", "lang": "eng", "isDuplicate": false, "date": "2024-05-09", "time": "23:17:04", "dateTime": "2024-05-09T23:17:04Z", "dateTimePub": "2024-05-09T23:16:32Z", "dataType": "news", "sim": 0.7607843279838562, "url": "https://www.straitstimes.com/world/europe/man-shoots-two-officers-in-paris-police-station-source", "title": "Man shoots two officers in Paris police station: Source", "body": "PARIS - A man shot and seriously wounded two officers in a Paris police station on May 9 after grabbing a weapon, a source close to the case told AFP.\n\nThe officers had just arrested the man and were searching him when he seized one of their weapons and opened fire, according to a police source.\n\nThe source close to the case said the incident happened in the French capital's 13th district shortly before 10.30pm (4.30am Singapore time), adding that the officers were in critical care. AFP", "source": {"uri": "straitstimes.com", "dataType": "news", "title": "The Straits Times"}, "authors": [], "concepts": [{"uri": "http://en.wikipedia.org/wiki/Paris_Police_Prefecture", "type": "loc", "score": 3, "label": {"eng": "Paris Police Prefecture"}, "location": null}, {"uri": "http://en.wikipedia.org/wiki/Paris", "type": "loc", "score": 3, "label": {"eng": "Paris"}, "location": {"type": "place", "label": {"eng": "Paris"}, "country": {"type": "country", "label": {"eng": "France"}}}}, {"uri": "http://en.wikipedia.org/wiki/French_language", "type": "wiki", "score": 1, "label": {"eng": "French language"}}, {"uri": "http://en.wikipedia.org/wiki/Agence_France-Presse", "type": "wiki", "score": 1, "label": {"eng": "Agence France-Presse"}}, {"uri": "http://en.wikipedia.org/wiki/Singapore", "type": "loc", "score": 1, "label": {"eng": "Singapore"}, "location": {"type": "country", "label": {"eng": "Singapore"}}}], "categories": [{"uri": "dmoz/Society/Crime", "label": "dmoz/Society/Crime", "wgt": 100}, {"uri": "dmoz/Society/Law/Law_Enforcement", "label": "dmoz/Society/Law/Law Enforcement", "wgt": 100}, {"uri": "dmoz/Society/Issues/Crime_and_Justice", "label": "dmoz/Society/Issues/Crime and Justice", "wgt": 100}, {"uri": "dmoz/Society/Crime/Prevention", "label": "dmoz/Society/Crime/Prevention", "wgt": 100}, {"uri": "dmoz/Society/Crime/Murder", "label": "dmoz/Society/Crime/Murder", "wgt": 100}], "image": "https://static1.straitstimes.com.sg/s3fs-public/styles/large30x20/public/articles/2024/05/10/ST-logo-placeholder_1.jpg?VersionId=te9nxp8QYdy7UqXqqgRChfov8ry7zhq.", "originalArticle": null, "storyUri": "eng-9555128", "eventUri": "eng-9555128", "location": {"type": "place", "label": {"eng": "Paris"}, "country": {"type": "country", "label": {"eng": "France"}}}, "extractedDates": [{"amb": false, "imp": true, "date": "2024-05-09", "textStart": 83, "textEnd": 88}], "sentiment": -0.2549019607843137, "wgt": 452992624, "relevance": 2}], "totalResults": 5, "page": 1, "count": 1, "pages": 5}}}
{"eng-9555128": {"articles": {"results": [{"uri": "8119910536", "lang": "eng", "isDuplicate": false, "date": "2024-05-09", "time": "23:17:04", "dateTime": "2024-05-09T23:17:04Z", "dateTimePub": "2024-05-09T23:16:32Z", "dataType": "news", "sim": 0.7607843279838562, "url": "https://www.straitstimes.com/world/europe/man-shoots-two-officers-in-paris-police-station-source", "title": "Man shoots two officers in Paris police station: Source", "body": "PARIS - A man shot and seriously wounded two officers in a Paris police station on May 9 after grabbing a weapon, a source close to the case told AFP.\n\nThe officers had just arrested the man and were searching him when he seized one of their weapons and opened fire, according to a police source.\n\nThe source close to the case said the incident happened in the French capital's 13th district shortly before 10.30pm (4.30am Singapore time), adding that the officers were in critical care. AFP", "source": {"uri": "straitstimes.com", "dataType": "news", "title": "The Straits Times"}, "authors": [], "concepts": [{"uri": "http://en.wikipedia.org/wiki/Paris_Police_Prefecture", "type": "loc", "score": 3, "label": {"eng": "Paris Police Prefecture"}, "location": null}, {"uri": "http://en.wikipedia.org/wiki/Paris", "type": "loc", "score": 3, "label": {"eng": "Paris"}, "location": {"type": "place", "label": {"eng": "Paris"}, "country": {"type": "country", "label": {"eng": "France"}}}}, {"uri": "http://en.wikipedia.org/wiki/French_language", "type": "wiki", "score": 1, "label": {"eng": "French language"}}, {"uri": "http://en.wikipedia.org/wiki/Agence_France-Presse", "type": "wiki", "score": 1, "label": {"eng": "Agence France-Presse"}}, {"uri": "http://en.wikipedia.org/wiki/Singapore", "type": "loc", "score": 1, "label": {"eng": "Singapore"}, "location": {"type": "country", "label": {"eng": "Singapore"}}}], "categories": [{"uri": "dmoz/Society/Crime", "label": "dmoz/Society/Crime", "wgt": 100}, {"uri": "dmoz/Society/Law/Law_Enforcement", "label": "dmoz/Society/Law/Law Enforcement", "wgt": 100}, {"uri": "dmoz/Society/Issues/Crime_and_Justice", "label": "dmoz/Society/Issues/Crime and Justice", "wgt": 100}, {"uri": "dmoz/Society/Crime/Prevention", "label": "dmoz/Society/Crime/Prevention", "wgt": 100}, {"uri": "dmoz/Society/Crime/Murder", "label": "dmoz/Society/Crime/Murder", "wgt": 100}], "image": "https://static1.straitstimes.com.sg/s3fs-public/styles/large30x20/public/articles/2024/05/10/ST-logo-placeholder_1.jpg?VersionId=te9nxp8QYdy7UqXqqgRChfov8ry7zhq.", "originalArticle": null, "storyUri": "eng-9555128", "eventUri": "eng-9555128", "location": {"type": "place", "label": {"eng": "Paris"}, "country": {"type": "country", "label": {"eng": "France"}}}, "extractedDates": [{"amb": false, "imp": true, "date": "2024-05-09", "textStart": 83, "textEnd": 88}], "sentiment": -0.2549019607843137, "wgt": 452992624, "relevance": 2}], "totalResults": 5, "page": 1, "count": 1, "pages": 5}}}
